{
    "variable": [
        {
            "id": "baseUrl",
            "key": "baseUrl",
            "type": "string",
            "name": "string",
            "value": "http:\/\/localhost:8080"
        }
    ],
    "info": {
        "name": "Api Cobranzas",
        "_postman_id": "19ca653e-9052-4154-87bb-23bebc51a78e",
        "description": "Esta API de Cobranza facilita la informaci\u00f3n actualizada de las cobranzas que se hicieron.",
        "schema": "https:\/\/schema.getpostman.com\/json\/collection\/v2.1.0\/collection.json"
    },
    "item": [
        {
            "name": "Administrador Cobranza",
            "description": "",
            "item": [
                {
                    "name": "Esta API tiene como finalidad mostrar la informaci\u00f3n de las cobranzas realizadas, puede ser filtrada por 4 campos distintos, los cuales son:\n cliente, equipo, vendedor y cobrador. Estos filtros har\u00e1n que se facilite la visualizaci\u00f3n y busqueda de estos datos.",
                    "request": {
                        "url": {
                            "host": "{{baseUrl}}",
                            "path": "v1\/cobranzas",
                            "query": [
                                {
                                    "key": "cliente",
                                    "value": "",
                                    "description": "campo para filtrar por rut. Ejemplo: 81698900",
                                    "disabled": true
                                },
                                {
                                    "key": "equipo",
                                    "value": "",
                                    "description": "campo para filtrar por equipo del vendedor. Ejemplo: 509",
                                    "disabled": true
                                },
                                {
                                    "key": "vendedor",
                                    "value": "",
                                    "description": "campo para filtrar por nombre del vendedor. Ejemplo: VVALENZUELA",
                                    "disabled": true
                                },
                                {
                                    "key": "cobrador",
                                    "value": "",
                                    "description": "campo para filtrar por nombre del cobrador. Ejemplo: FECARRASCO",
                                    "disabled": true
                                }
                            ],
                            "raw": "{{baseUrl}}\/v1\/cobranzas?cliente=&equipo=&vendedor=&cobrador="
                        },
                        "method": "GET",
                        "header": [
                            {
                                "key": "Accept",
                                "value": "application\/json"
                            }
                        ],
                        "body": null,
                        "description": "",
                        "auth": {
                            "type": "noauth"
                        }
                    },
                    "response": [
                        {
                            "header": [
                                {
                                    "key": "cache-control",
                                    "value": "no-cache, private"
                                },
                                {
                                    "key": "content-type",
                                    "value": "application\/json"
                                }
                            ],
                            "code": 200,
                            "body": "{\"current_page\":1,\"data\":[{\"fecha_proceso\":\"2023-02-28 00:00:00\",\"numfac\":10492272,\"equipo\":502,\"vendedor\":\"COJEDA\",\"negocio_eerr\":\"PYME\",\"rutcli\":\"96858100\",\"cencos\":\"0\",\"codemp\":3,\"razons\":\"INVERSIONES BUTAMALAL S A\",\"estado\":\"ACTIVO\",\"forma_pago\":\"FACTURA\",\"plazo_pago\":\"30 DIAS\",\"codven\":12971585,\"fecemi\":\"2023-02-21 00:00:00\",\"fecven\":\"2023-03-23 00:00:00\",\"totgen\":353113,\"totsal\":353113,\"dias_calc\":30,\"dias\":30,\"cobrador\":\"PMONTERO\",\"asegurado\":\"1\",\"ciaseg\":\"2\",\"clasifica\":\"GRAN EMPRESA\",\"codestado\":1,\"clase\":\"DR\",\"rendida\":\"S\",\"doc_financiero\":\"2500062602\",\"cia_seg_sap\":\"Innominado\",\"viapag\":\"F\",\"debe_haber\":\"S\",\"cme\":null,\"asignacion\":\"1802311286\",\"ctacontable\":\"1104011001\",\"feccontable\":\"2023-02-21 00:00:00\",\"fecha_base\":\"20230221\",\"moneda\":\"CLP\",\"plapag\":\"Z030\",\"fecha_reg\":\"2023-02-28 00:00:00\",\"archivo\":\"BSICL_BSID_20230228040005.dat\",\"texto_pos\":null,\"fecha_compensacion\":\"00000000\",\"docto_compensacion\":null,\"bloqueo_gestion\":null,\"motivo_bloqueo\":null,\"cod_sociedad\":\"2000\",\"id_sap_cliente\":\"1339975\",\"id_sap_cencos\":\"1339975\",\"observacion_adicional\":\"0001339975\",\"dias_ven\":-23,\"provision\":\"No\",\"rango_morosidad\":\"a. x Vencer\",\"status\":\"Vigente\",\"considerar\":\"Si\",\"documento\":\"Factura Sap\",\"factura_asociada\":\"10492272\"},{\"fecha_proceso\":\"2023-02-28 00:00:00\",\"numfac\":10440810,\"equipo\":300,\"vendedor\":\"CMESTRE\",\"negocio_eerr\":\"PYME\",\"rutcli\":\"96705150\",\"cencos\":\"0\",\"codemp\":3,\"razons\":\"ALTA TECNOLOGIA MEDICA S A (ATM)\",\"estado\":\"ACTIVO\",\"forma_pago\":\"FACTURA\",\"plazo_pago\":\"30 DIAS\",\"codven\":12657507,\"fecemi\":\"2023-02-21 00:00:00\",\"fecven\":\"2023-03-23 00:00:00\",\"totgen\":168278,\"totsal\":168278,\"dias_calc\":30,\"dias\":30,\"cobrador\":\"KAGONZALEZ\",\"asegurado\":\"1\",\"ciaseg\":\"2\",\"clasifica\":\"GRAN EMPRESA\",\"codestado\":1,\"clase\":\"DR\",\"rendida\":\"S\",\"doc_financiero\":\"2500062603\",\"cia_seg_sap\":\"Innominado\",\"viapag\":\"F\",\"debe_haber\":\"S\",\"cme\":null,\"asignacion\":\"1802311287\",\"ctacontable\":\"1104011001\",\"feccontable\":\"2023-02-21 00:00:00\",\"fecha_base\":\"20230221\",\"moneda\":\"CLP\",\"plapag\":\"Z030\",\"fecha_reg\":\"2023-02-28 00:00:00\",\"archivo\":\"BSICL_BSID_20230228040005.dat\",\"texto_pos\":null,\"fecha_compensacion\":\"00000000\",\"docto_compensacion\":null,\"bloqueo_gestion\":null,\"motivo_bloqueo\":null,\"cod_sociedad\":\"2000\",\"id_sap_cliente\":\"1337431\",\"id_sap_cencos\":\"7422676\",\"observacion_adicional\":\"0007422676\",\"dias_ven\":-23,\"provision\":\"No\",\"rango_morosidad\":\"a. x Vencer\",\"status\":\"Vigente\",\"considerar\":\"Si\",\"documento\":\"Factura Sap\",\"factura_asociada\":\"10440810\"},{\"fecha_proceso\":\"2023-02-28 00:00:00\",\"numfac\":10492277,\"equipo\":300,\"vendedor\":\"ACRODRIGUEZ\",\"negocio_eerr\":\"GRAN EMPRESA\",\"rutcli\":\"77479090\",\"cencos\":\"0\",\"codemp\":3,\"razons\":\"GESTION NOLLAGAM S.A\",\"estado\":\"ACTIVO\",\"forma_pago\":\"FACTURA\",\"plazo_pago\":\"30 DIAS\",\"codven\":8085103,\"fecemi\":\"2023-02-21 00:00:00\",\"fecven\":\"2023-03-23 00:00:00\",\"totgen\":243938,\"totsal\":243938,\"dias_calc\":30,\"dias\":30,\"cobrador\":\"CAMCACERES\",\"asegurado\":\"1\",\"ciaseg\":\"2\",\"clasifica\":\"GRAN EMPRESA\",\"codestado\":1,\"clase\":\"DR\",\"rendida\":\"S\",\"doc_financiero\":\"2500062605\",\"cia_seg_sap\":\"Innominado\",\"viapag\":\"F\",\"debe_haber\":\"S\",\"cme\":null,\"asignacion\":\"1802311289\",\"ctacontable\":\"1104011001\",\"feccontable\":\"2023-02-21 00:00:00\",\"fecha_base\":\"20230221\",\"moneda\":\"CLP\",\"plapag\":\"Z030\",\"fecha_reg\":\"2023-02-28 00:00:00\",\"archivo\":\"BSICL_BSID_20230228040005.dat\",\"texto_pos\":null,\"fecha_compensacion\":\"00000000\",\"docto_compensacion\":null,\"bloqueo_gestion\":null,\"motivo_bloqueo\":null,\"cod_sociedad\":\"2000\",\"id_sap_cliente\":\"1130040\",\"id_sap_cencos\":\"1130040\",\"observacion_adicional\":\"0001130040\",\"dias_ven\":-23,\"provision\":\"No\",\"rango_morosidad\":\"a. x Vencer\",\"status\":\"Vigente\",\"considerar\":\"Si\",\"documento\":\"Factura Sap\",\"factura_asociada\":\"10492277\"},{\"fecha_proceso\":\"2023-02-28 00:00:00\",\"numfac\":10440829,\"equipo\":502,\"vendedor\":\"MJIMENEZ\",\"negocio_eerr\":\"PYME\",\"rutcli\":\"96657020\",\"cencos\":\"0\",\"codemp\":3,\"razons\":\"BEAUTE FRANCAISE S A\",\"estado\":\"ACTIVO\",\"forma_pago\":\"FACTURA\",\"plazo_pago\":\"30 DIAS\",\"codven\":9233260,\"fecemi\":\"2023-02-21 00:00:00\",\"fecven\":\"2023-03-23 00:00:00\",\"totgen\":418602,\"totsal\":418602,\"dias_calc\":30,\"dias\":30,\"cobrador\":\"VORREGO\",\"asegurado\":\"1\",\"ciaseg\":\"2\",\"clasifica\":\"PYME MEDIANA\",\"codestado\":1,\"clase\":\"DR\",\"rendida\":\"S\",\"doc_financiero\":\"2500062606\",\"cia_seg_sap\":\"Innominado\",\"viapag\":\"F\",\"debe_haber\":\"S\",\"cme\":null,\"asignacion\":\"1802311290\",\"ctacontable\":\"1104011001\",\"feccontable\":\"2023-02-21 00:00:00\",\"fecha_base\":\"20230221\",\"moneda\":\"CLP\",\"plapag\":\"Z030\",\"fecha_reg\":\"2023-02-28 00:00:00\",\"archivo\":\"BSICL_BSID_20230228040005.dat\",\"texto_pos\":null,\"fecha_compensacion\":\"00000000\",\"docto_compensacion\":null,\"bloqueo_gestion\":null,\"motivo_bloqueo\":null,\"cod_sociedad\":\"2000\",\"id_sap_cliente\":\"1336669\",\"id_sap_cencos\":\"1336669\",\"observacion_adicional\":\"0001336669\",\"dias_ven\":-23,\"provision\":\"No\",\"rango_morosidad\":\"a. x Vencer\",\"status\":\"Vigente\",\"considerar\":\"Si\",\"documento\":\"Factura Sap\",\"factura_asociada\":\"10440829\"},{\"fecha_proceso\":\"2023-02-28 00:00:00\",\"numfac\":10492259,\"equipo\":550,\"vendedor\":\"WEB550\",\"negocio_eerr\":\"PYME\",\"rutcli\":\"65155358\",\"cencos\":\"0\",\"codemp\":3,\"razons\":\"CORPORACION EDUCACIONAL SAN MIGUEL DE LOS ANDES\",\"estado\":\"ACTIVO\",\"forma_pago\":\"DEPOSITO\",\"plazo_pago\":\"AL DIA\",\"codven\":98989898,\"fecemi\":\"2023-02-21 00:00:00\",\"fecven\":\"2023-03-23 00:00:00\",\"totgen\":285185,\"totsal\":285185,\"dias_calc\":30,\"dias\":30,\"cobrador\":\"GVARGAS\",\"asegurado\":\"1\",\"ciaseg\":\"2\",\"clasifica\":\"PYME PEQUE\\u00ef\\u00bf\\u00bdA\",\"codestado\":1,\"clase\":\"DR\",\"rendida\":\"S\",\"doc_financiero\":\"2500062607\",\"cia_seg_sap\":\"Innominado\",\"viapag\":\"D\",\"debe_haber\":\"S\",\"cme\":null,\"asignacion\":\"1802311291\",\"ctacontable\":\"1104011001\",\"feccontable\":\"2023-02-21 00:00:00\",\"fecha_base\":\"20230221\",\"moneda\":\"CLP\",\"plapag\":\"Z002\",\"fecha_reg\":\"2023-02-28 00:00:00\",\"archivo\":\"BSICL_BSID_20230228040005.dat\",\"texto_pos\":null,\"fecha_compensacion\":\"00000000\",\"docto_compensacion\":null,\"bloqueo_gestion\":null,\"motivo_bloqueo\":null,\"cod_sociedad\":\"2000\",\"id_sap_cliente\":\"1717251\",\"id_sap_cencos\":\"1717251\",\"observacion_adicional\":\"0001717251\",\"dias_ven\":-23,\"provision\":\"No\",\"rango_morosidad\":\"a. x Vencer\",\"status\":\"Vigente\",\"considerar\":\"Si\",\"documento\":\"Factura Sap\",\"factura_asociada\":\"10492259\"},{\"fecha_proceso\":\"2023-02-28 00:00:00\",\"numfac\":10492284,\"equipo\":509,\"vendedor\":\"MAOSORIO\",\"negocio_eerr\":\"PYME\",\"rutcli\":\"96778160\",\"cencos\":\"0\",\"codemp\":3,\"razons\":\"ECOPRENEUR CHILE S A\",\"estado\":\"ACTIVO\",\"forma_pago\":\"FACTURA\",\"plazo_pago\":\"30 DIAS\",\"codven\":25906018,\"fecemi\":\"2023-02-21 00:00:00\",\"fecven\":\"2023-03-23 00:00:00\",\"totgen\":203827,\"totsal\":203827,\"dias_calc\":30,\"dias\":30,\"cobrador\":\"PMONTERO\",\"asegurado\":\"1\",\"ciaseg\":\"2\",\"clasifica\":\"GRAN EMPRESA\",\"codestado\":1,\"clase\":\"DR\",\"rendida\":\"S\",\"doc_financiero\":\"2500062608\",\"cia_seg_sap\":\"Innominado\",\"viapag\":\"F\",\"debe_haber\":\"S\",\"cme\":null,\"asignacion\":\"1802311292\",\"ctacontable\":\"1104011001\",\"feccontable\":\"2023-02-21 00:00:00\",\"fecha_base\":\"20230221\",\"moneda\":\"CLP\",\"plapag\":\"Z030\",\"fecha_reg\":\"2023-02-28 00:00:00\",\"archivo\":\"BSICL_BSID_20230228040005.dat\",\"texto_pos\":null,\"fecha_compensacion\":\"00000000\",\"docto_compensacion\":null,\"bloqueo_gestion\":null,\"motivo_bloqueo\":null,\"cod_sociedad\":\"2000\",\"id_sap_cliente\":\"1338424\",\"id_sap_cencos\":\"1338424\",\"observacion_adicional\":\"0001338424\",\"dias_ven\":-23,\"provision\":\"No\",\"rango_morosidad\":\"a. x Vencer\",\"status\":\"Vigente\",\"considerar\":\"Si\",\"documento\":\"Factura Sap\",\"factura_asociada\":\"10492284\"},{\"fecha_proceso\":\"2023-02-28 00:00:00\",\"numfac\":10440830,\"equipo\":509,\"vendedor\":\"FDLBARRA\",\"negocio_eerr\":\"PYME\",\"rutcli\":\"76091301\",\"cencos\":\"0\",\"codemp\":3,\"razons\":\"LABORATORIOS BIOPAS S.A\",\"estado\":\"ACTIVO\",\"forma_pago\":\"FACTURA\",\"plazo_pago\":\"30 DIAS\",\"codven\":7201778,\"fecemi\":\"2023-02-21 00:00:00\",\"fecven\":\"2023-03-23 00:00:00\",\"totgen\":183201,\"totsal\":183201,\"dias_calc\":30,\"dias\":30,\"cobrador\":\"KAGONZALEZ\",\"asegurado\":\"1\",\"ciaseg\":\"2\",\"clasifica\":\"PYME PEQUE\\u00ef\\u00bf\\u00bdA\",\"codestado\":1,\"clase\":\"DR\",\"rendida\":\"S\",\"doc_financiero\":\"2500062609\",\"cia_seg_sap\":\"Innominado\",\"viapag\":\"F\",\"debe_haber\":\"S\",\"cme\":null,\"asignacion\":\"1802311293\",\"ctacontable\":\"1104011001\",\"feccontable\":\"2023-02-21 00:00:00\",\"fecha_base\":\"20230221\",\"moneda\":\"CLP\",\"plapag\":\"Z030\",\"fecha_reg\":\"2023-02-28 00:00:00\",\"archivo\":\"BSICL_BSID_20230228040005.dat\",\"texto_pos\":null,\"fecha_compensacion\":\"00000000\",\"docto_compensacion\":null,\"bloqueo_gestion\":null,\"motivo_bloqueo\":null,\"cod_sociedad\":\"2000\",\"id_sap_cliente\":\"1083372\",\"id_sap_cencos\":\"1083372\",\"observacion_adicional\":\"0001083372\",\"dias_ven\":-23,\"provision\":\"No\",\"rango_morosidad\":\"a. x Vencer\",\"status\":\"Vigente\",\"considerar\":\"Si\",\"documento\":\"Factura Sap\",\"factura_asociada\":\"10440830\"},{\"fecha_proceso\":\"2023-02-28 00:00:00\",\"numfac\":10492273,\"equipo\":515,\"vendedor\":\"GIRIOS\",\"negocio_eerr\":\"PYME\",\"rutcli\":\"96829360\",\"cencos\":\"0\",\"codemp\":3,\"razons\":\"SOAINT GESTION S.A.\",\"estado\":\"ACTIVO\",\"forma_pago\":\"FACTURA\",\"plazo_pago\":\"30 DIAS\",\"codven\":14616244,\"fecemi\":\"2023-02-21 00:00:00\",\"fecven\":\"2023-03-23 00:00:00\",\"totgen\":118713,\"totsal\":118713,\"dias_calc\":30,\"dias\":30,\"cobrador\":\"KAGONZALEZ\",\"asegurado\":\"1\",\"ciaseg\":\"2\",\"clasifica\":\"PYME PEQUE\\u00ef\\u00bf\\u00bdA\",\"codestado\":1,\"clase\":\"DR\",\"rendida\":\"S\",\"doc_financiero\":\"2500062610\",\"cia_seg_sap\":\"Innominado\",\"viapag\":\"F\",\"debe_haber\":\"S\",\"cme\":null,\"asignacion\":\"1802311294\",\"ctacontable\":\"1104011001\",\"feccontable\":\"2023-02-21 00:00:00\",\"fecha_base\":\"20230221\",\"moneda\":\"CLP\",\"plapag\":\"Z030\",\"fecha_reg\":\"2023-02-28 00:00:00\",\"archivo\":\"BSICL_BSID_20230228040005.dat\",\"texto_pos\":null,\"fecha_compensacion\":\"00000000\",\"docto_compensacion\":null,\"bloqueo_gestion\":null,\"motivo_bloqueo\":null,\"cod_sociedad\":\"2000\",\"id_sap_cliente\":\"1747467\",\"id_sap_cencos\":\"1747467\",\"observacion_adicional\":\"0001747467\",\"dias_ven\":-23,\"provision\":\"No\",\"rango_morosidad\":\"a. x Vencer\",\"status\":\"Vigente\",\"considerar\":\"Si\",\"documento\":\"Factura Sap\",\"factura_asociada\":\"10492273\"},{\"fecha_proceso\":\"2023-02-28 00:00:00\",\"numfac\":8416388,\"equipo\":516,\"vendedor\":\"PRIOSECO\",\"negocio_eerr\":\"DIMERC CORP\",\"rutcli\":\"81201000\",\"cencos\":\"0\",\"codemp\":3,\"razons\":\"CENCOSUD RETAIL S.A.\",\"estado\":\"ACTIVO\",\"forma_pago\":\"FACTURA\",\"plazo_pago\":\"30 DIAS\",\"codven\":12498287,\"fecemi\":\"2019-04-18 00:00:00\",\"fecven\":\"2019-05-18 00:00:00\",\"totgen\":218460,\"totsal\":218460,\"dias_calc\":30,\"dias\":30,\"cobrador\":\"FECARRASCO\",\"asegurado\":\"1\",\"ciaseg\":\"1\",\"clasifica\":\"HOLDING\",\"codestado\":1,\"clase\":\"DR\",\"rendida\":\"N\",\"doc_financiero\":\"1800173169\",\"cia_seg_sap\":\"0.00\",\"viapag\":null,\"debe_haber\":\"S\",\"cme\":null,\"asignacion\":null,\"ctacontable\":\"1104011001\",\"feccontable\":\"2019-04-18 00:00:00\",\"fecha_base\":\"20190617\",\"moneda\":\"CLP\",\"plapag\":null,\"fecha_reg\":\"2023-02-28 00:00:00\",\"archivo\":\"BSICL_BSID_20230228040005.dat\",\"texto_pos\":\"Contab. Factura                                                                                     \",\"fecha_compensacion\":\"00000000\",\"docto_compensacion\":null,\"bloqueo_gestion\":null,\"motivo_bloqueo\":null,\"cod_sociedad\":\"2000\",\"id_sap_cliente\":\"1745151\",\"id_sap_cencos\":\"1745151\",\"observacion_adicional\":null,\"dias_ven\":1382,\"provision\":\"Si\",\"rango_morosidad\":\"h. m\\u00c3\\u00a1s de 180\",\"status\":\"Vencido\",\"considerar\":\"Si\",\"documento\":\"Factura Sap\",\"factura_asociada\":\"8416388\"},{\"fecha_proceso\":\"2023-02-28 00:00:00\",\"numfac\":1747177,\"equipo\":516,\"vendedor\":\"VVALENZUELA\",\"negocio_eerr\":\"DIMERC CORP\",\"rutcli\":\"81698900\",\"cencos\":\"0\",\"codemp\":3,\"razons\":\"PONTIFICIA UNIVERSIDAD CATOLICA DE CHILE\",\"estado\":\"ACTIVO\",\"forma_pago\":\"FACTURA\",\"plazo_pago\":\"90 DIAS\",\"codven\":10298980,\"fecemi\":\"2019-05-02 00:00:00\",\"fecven\":\"2019-05-02 00:00:00\",\"totgen\":-97893,\"totsal\":-97893,\"dias_calc\":0,\"dias\":0,\"cobrador\":\"FECARRASCO\",\"asegurado\":\"1\",\"ciaseg\":\"1\",\"clasifica\":\"HOLDING\",\"codestado\":1,\"clase\":\"DG\",\"rendida\":\"FG\",\"doc_financiero\":\"1600022225\",\"cia_seg_sap\":\"0.00\",\"viapag\":null,\"debe_haber\":\"H\",\"cme\":null,\"asignacion\":null,\"ctacontable\":\"1104011001\",\"feccontable\":\"2019-05-02 00:00:00\",\"fecha_base\":\"20190630\",\"moneda\":\"CLP\",\"plapag\":null,\"fecha_reg\":\"2023-02-28 00:00:00\",\"archivo\":\"BSICL_BSID_20230228040005.dat\",\"texto_pos\":\"Contab NC Bloq                                                                                      \",\"fecha_compensacion\":\"00000000\",\"docto_compensacion\":null,\"bloqueo_gestion\":null,\"motivo_bloqueo\":null,\"cod_sociedad\":\"2000\",\"id_sap_cliente\":\"1745241\",\"id_sap_cencos\":\"1745241\",\"observacion_adicional\":null,\"dias_ven\":1398,\"provision\":\"Si\",\"rango_morosidad\":\"h. m\\u00c3\\u00a1s de 180\",\"status\":\"Abono\",\"considerar\":\"Si\",\"documento\":\"Ncr Sap\",\"factura_asociada\":\"8206311\"},{\"fecha_proceso\":\"2023-02-28 00:00:00\",\"numfac\":8481269,\"equipo\":516,\"vendedor\":\"PRIOSECO\",\"negocio_eerr\":\"DIMERC CORP\",\"rutcli\":\"76568660\",\"cencos\":\"0\",\"codemp\":3,\"razons\":\"EASY RETAIL S.A. .-\",\"estado\":\"ACTIVO\",\"forma_pago\":\"FACTURA\",\"plazo_pago\":\"30 DIAS\",\"codven\":12498287,\"fecemi\":\"2019-07-15 00:00:00\",\"fecven\":\"2019-08-14 00:00:00\",\"totgen\":666438,\"totsal\":666438,\"dias_calc\":30,\"dias\":30,\"cobrador\":\"FECARRASCO\",\"asegurado\":\"1\",\"ciaseg\":\"1\",\"clasifica\":\"HOLDING\",\"codestado\":1,\"clase\":\"DR\",\"rendida\":\"N\",\"doc_financiero\":\"1800355544\",\"cia_seg_sap\":\"0.00\",\"viapag\":null,\"debe_haber\":\"S\",\"cme\":null,\"asignacion\":null,\"ctacontable\":\"1104011001\",\"feccontable\":\"2019-07-15 00:00:00\",\"fecha_base\":\"20190913\",\"moneda\":\"CLP\",\"plapag\":null,\"fecha_reg\":\"2023-02-28 00:00:00\",\"archivo\":\"BSICL_BSID_20230228040005.dat\",\"texto_pos\":\"Contab. Factura Refac                                                                               \",\"fecha_compensacion\":\"00000000\",\"docto_compensacion\":null,\"bloqueo_gestion\":null,\"motivo_bloqueo\":null,\"cod_sociedad\":\"2000\",\"id_sap_cliente\":\"1728873\",\"id_sap_cencos\":\"1728873\",\"observacion_adicional\":null,\"dias_ven\":1294,\"provision\":\"Si\",\"rango_morosidad\":\"h. m\\u00c3\\u00a1s de 180\",\"status\":\"Vencido\",\"considerar\":\"Si\",\"documento\":\"Factura Sap\",\"factura_asociada\":\"8481269\"},{\"fecha_proceso\":\"2023-02-28 00:00:00\",\"numfac\":8478921,\"equipo\":516,\"vendedor\":\"PRIOSECO\",\"negocio_eerr\":\"DIMERC CORP\",\"rutcli\":\"76568660\",\"cencos\":\"0\",\"codemp\":3,\"razons\":\"EASY RETAIL S.A. .-\",\"estado\":\"ACTIVO\",\"forma_pago\":\"FACTURA\",\"plazo_pago\":\"30 DIAS\",\"codven\":12498287,\"fecemi\":\"2019-10-01 00:00:00\",\"fecven\":\"2019-10-31 00:00:00\",\"totgen\":76912,\"totsal\":76912,\"dias_calc\":30,\"dias\":30,\"cobrador\":\"FECARRASCO\",\"asegurado\":\"1\",\"ciaseg\":\"1\",\"clasifica\":\"HOLDING\",\"codestado\":1,\"clase\":\"DR\",\"rendida\":\"FG\",\"doc_financiero\":\"1800491547\",\"cia_seg_sap\":\"0.00\",\"viapag\":null,\"debe_haber\":\"S\",\"cme\":null,\"asignacion\":null,\"ctacontable\":\"1104011001\",\"feccontable\":\"2019-10-01 00:00:00\",\"fecha_base\":\"20191130\",\"moneda\":\"CLP\",\"plapag\":null,\"fecha_reg\":\"2023-02-28 00:00:00\",\"archivo\":\"BSICL_BSID_20230228040005.dat\",\"texto_pos\":\"Contab. Refacturaci\\u00c3\\u0192\\u00c2\\u00b3n                                                                              \",\"fecha_compensacion\":\"00000000\",\"docto_compensacion\":null,\"bloqueo_gestion\":null,\"motivo_bloqueo\":null,\"cod_sociedad\":\"2000\",\"id_sap_cliente\":\"1728873\",\"id_sap_cencos\":\"1728873\",\"observacion_adicional\":null,\"dias_ven\":1216,\"provision\":\"Si\",\"rango_morosidad\":\"h. m\\u00c3\\u00a1s de 180\",\"status\":\"Vencido\",\"considerar\":\"Si\",\"documento\":\"Factura Sap\",\"factura_asociada\":\"8478921\"},{\"fecha_proceso\":\"2023-02-28 00:00:00\",\"numfac\":8478922,\"equipo\":516,\"vendedor\":\"PRIOSECO\",\"negocio_eerr\":\"DIMERC CORP\",\"rutcli\":\"76568660\",\"cencos\":\"0\",\"codemp\":3,\"razons\":\"EASY RETAIL S.A. .-\",\"estado\":\"ACTIVO\",\"forma_pago\":\"FACTURA\",\"plazo_pago\":\"30 DIAS\",\"codven\":12498287,\"fecemi\":\"2019-10-01 00:00:00\",\"fecven\":\"2019-10-31 00:00:00\",\"totgen\":149865,\"totsal\":149865,\"dias_calc\":30,\"dias\":30,\"cobrador\":\"FECARRASCO\",\"asegurado\":\"1\",\"ciaseg\":\"1\",\"clasifica\":\"HOLDING\",\"codestado\":1,\"clase\":\"DR\",\"rendida\":\"FG\",\"doc_financiero\":\"1800491548\",\"cia_seg_sap\":\"0.00\",\"viapag\":null,\"debe_haber\":\"S\",\"cme\":null,\"asignacion\":null,\"ctacontable\":\"1104011001\",\"feccontable\":\"2019-10-01 00:00:00\",\"fecha_base\":\"20191130\",\"moneda\":\"CLP\",\"plapag\":null,\"fecha_reg\":\"2023-02-28 00:00:00\",\"archivo\":\"BSICL_BSID_20230228040005.dat\",\"texto_pos\":\"Contab. Refacturaci\\u00c3\\u0192\\u00c2\\u00b3n                                                                              \",\"fecha_compensacion\":\"00000000\",\"docto_compensacion\":null,\"bloqueo_gestion\":null,\"motivo_bloqueo\":null,\"cod_sociedad\":\"2000\",\"id_sap_cliente\":\"1728873\",\"id_sap_cencos\":\"1728873\",\"observacion_adicional\":null,\"dias_ven\":1216,\"provision\":\"Si\",\"rango_morosidad\":\"h. m\\u00c3\\u00a1s de 180\",\"status\":\"Vencido\",\"considerar\":\"Si\",\"documento\":\"Factura Sap\",\"factura_asociada\":\"8478922\"},{\"fecha_proceso\":\"2023-02-28 00:00:00\",\"numfac\":1744939,\"equipo\":517,\"vendedor\":\"LIVASQUEZ\",\"negocio_eerr\":\"DIMERC CORP\",\"rutcli\":\"96722460\",\"cencos\":\"0\",\"codemp\":3,\"razons\":\"METROGAS S A\",\"estado\":\"ACTIVO\",\"forma_pago\":\"FACTURA\",\"plazo_pago\":\"30 DIAS\",\"codven\":15723411,\"fecemi\":\"2019-04-16 00:00:00\",\"fecven\":\"2019-04-16 00:00:00\",\"totgen\":-79349,\"totsal\":-79349,\"dias_calc\":0,\"dias\":0,\"cobrador\":\"FECARRASCO\",\"asegurado\":\"1\",\"ciaseg\":\"1\",\"clasifica\":\"HOLDING\",\"codestado\":1,\"clase\":\"DG\",\"rendida\":\"S\",\"doc_financiero\":\"1600014705\",\"cia_seg_sap\":\"0.00\",\"viapag\":null,\"debe_haber\":\"H\",\"cme\":null,\"asignacion\":null,\"ctacontable\":\"1104011001\",\"feccontable\":\"2019-04-17 00:00:00\",\"fecha_base\":\"20190516\",\"moneda\":\"CLP\",\"plapag\":null,\"fecha_reg\":\"2023-02-28 00:00:00\",\"archivo\":\"BSICL_BSID_20230228040005.dat\",\"texto_pos\":null,\"fecha_compensacion\":\"00000000\",\"docto_compensacion\":null,\"bloqueo_gestion\":null,\"motivo_bloqueo\":null,\"cod_sociedad\":\"2000\",\"id_sap_cliente\":\"3062829\",\"id_sap_cencos\":\"3062829\",\"observacion_adicional\":null,\"dias_ven\":1414,\"provision\":\"Si\",\"rango_morosidad\":\"h. m\\u00c3\\u00a1s de 180\",\"status\":\"Abono\",\"considerar\":\"Si\",\"documento\":\"Ncr Sap\",\"factura_asociada\":\"8251748\"},{\"fecha_proceso\":\"2023-02-28 00:00:00\",\"numfac\":1812268,\"equipo\":516,\"vendedor\":\"PRIOSECO\",\"negocio_eerr\":\"DIMERC CORP\",\"rutcli\":\"81201000\",\"cencos\":\"0\",\"codemp\":3,\"razons\":\"CENCOSUD RETAIL S.A.\",\"estado\":\"ACTIVO\",\"forma_pago\":\"FACTURA\",\"plazo_pago\":\"30 DIAS\",\"codven\":12498287,\"fecemi\":\"2020-07-27 00:00:00\",\"fecven\":\"2020-09-25 00:00:00\",\"totgen\":-1225,\"totsal\":-1225,\"dias_calc\":60,\"dias\":60,\"cobrador\":\"FECARRASCO\",\"asegurado\":\"1\",\"ciaseg\":\"1\",\"clasifica\":\"HOLDING\",\"codestado\":1,\"clase\":\"DG\",\"rendida\":\"S\",\"doc_financiero\":\"1600026887\",\"cia_seg_sap\":\"Nominado\",\"viapag\":null,\"debe_haber\":\"H\",\"cme\":null,\"asignacion\":null,\"ctacontable\":\"1104011001\",\"feccontable\":\"2020-07-27 00:00:00\",\"fecha_base\":\"20200727\",\"moneda\":\"CLP\",\"plapag\":\"Z060\",\"fecha_reg\":\"2023-02-28 00:00:00\",\"archivo\":\"BSICL_BSID_20230228040005.dat\",\"texto_pos\":null,\"fecha_compensacion\":\"00000000\",\"docto_compensacion\":null,\"bloqueo_gestion\":null,\"motivo_bloqueo\":null,\"cod_sociedad\":\"2000\",\"id_sap_cliente\":\"1745151\",\"id_sap_cencos\":\"1745151\",\"observacion_adicional\":\"0001745151\",\"dias_ven\":886,\"provision\":\"Si\",\"rango_morosidad\":\"h. m\\u00c3\\u00a1s de 180\",\"status\":\"Abono\",\"considerar\":\"Si\",\"documento\":\"Ncr Sap\",\"factura_asociada\":\"9167464\"}],\"first_page_url\":\"http:\\\/\\\/localhost\\\/v1\\\/cobranzas?page=1\",\"from\":1,\"last_page\":3250,\"last_page_url\":\"http:\\\/\\\/localhost\\\/v1\\\/cobranzas?page=3250\",\"links\":[{\"url\":null,\"label\":\"pagination.previous\",\"active\":false},{\"url\":\"http:\\\/\\\/localhost\\\/v1\\\/cobranzas?page=1\",\"label\":\"1\",\"active\":true},{\"url\":\"http:\\\/\\\/localhost\\\/v1\\\/cobranzas?page=2\",\"label\":\"2\",\"active\":false},{\"url\":\"http:\\\/\\\/localhost\\\/v1\\\/cobranzas?page=3\",\"label\":\"3\",\"active\":false},{\"url\":\"http:\\\/\\\/localhost\\\/v1\\\/cobranzas?page=4\",\"label\":\"4\",\"active\":false},{\"url\":\"http:\\\/\\\/localhost\\\/v1\\\/cobranzas?page=5\",\"label\":\"5\",\"active\":false},{\"url\":\"http:\\\/\\\/localhost\\\/v1\\\/cobranzas?page=6\",\"label\":\"6\",\"active\":false},{\"url\":\"http:\\\/\\\/localhost\\\/v1\\\/cobranzas?page=7\",\"label\":\"7\",\"active\":false},{\"url\":\"http:\\\/\\\/localhost\\\/v1\\\/cobranzas?page=8\",\"label\":\"8\",\"active\":false},{\"url\":\"http:\\\/\\\/localhost\\\/v1\\\/cobranzas?page=9\",\"label\":\"9\",\"active\":false},{\"url\":\"http:\\\/\\\/localhost\\\/v1\\\/cobranzas?page=10\",\"label\":\"10\",\"active\":false},{\"url\":null,\"label\":\"...\",\"active\":false},{\"url\":\"http:\\\/\\\/localhost\\\/v1\\\/cobranzas?page=3249\",\"label\":\"3249\",\"active\":false},{\"url\":\"http:\\\/\\\/localhost\\\/v1\\\/cobranzas?page=3250\",\"label\":\"3250\",\"active\":false},{\"url\":\"http:\\\/\\\/localhost\\\/v1\\\/cobranzas?page=2\",\"label\":\"pagination.next\",\"active\":false}],\"next_page_url\":\"http:\\\/\\\/localhost\\\/v1\\\/cobranzas?page=2\",\"path\":\"http:\\\/\\\/localhost\\\/v1\\\/cobranzas\",\"per_page\":15,\"prev_page_url\":null,\"to\":15,\"total\":48739}",
                            "name": ""
                        }
                    ]
                }
            ]
        },
        {
            "name": "Endpoints",
            "description": "",
            "item": [
                {
                    "name": "Healthcheck",
                    "request": {
                        "url": {
                            "host": "{{baseUrl}}",
                            "path": "v1\/healthcheck",
                            "query": [],
                            "raw": "{{baseUrl}}\/v1\/healthcheck"
                        },
                        "method": "GET",
                        "header": [
                            {
                                "key": "Accept",
                                "value": "application\/json"
                            }
                        ],
                        "body": null,
                        "description": "Check that the service is up. If everything is okay, you'll get a 200 OK response.\n\nOtherwise, the request will fail with a 400 error, and a response listing the failed services.",
                        "auth": {
                            "type": "noauth"
                        }
                    },
                    "response": [
                        {
                            "header": [],
                            "code": 400,
                            "body": "{\"status\": \"down\", \"services\": {\"database\": \"up\", \"redis\": \"down\"}}",
                            "name": "Service is unhealthy"
                        },
                        {
                            "header": [
                                {
                                    "key": "cache-control",
                                    "value": "no-cache, private"
                                },
                                {
                                    "key": "content-type",
                                    "value": "application\/json"
                                }
                            ],
                            "code": 200,
                            "body": "{\"status\":\"up\",\"services\":{\"database\":\"up\",\"redis\":\"up\"}}",
                            "name": ""
                        }
                    ]
                }
            ]
        }
    ],
    "auth": {
        "type": "noauth"
    }
}